<?xml version="1.0" encoding="utf-8"?>
<!-- Generator: Adobe Illustrator 26.5.0, SVG Export Plug-In . SVG Version: 6.00 Build 0)  -->
<svg version="1.1" id="katman_1" xmlns="http://www.w3.org/2000/svg" xmlns:xlink="http://www.w3.org/1999/xlink" x="0px" y="0px"
	 viewBox="0 0 181.68 162.58" style="enable-background:new 0 0 181.68 162.58;" xml:space="preserve">
<style type="text/css">
	.st0{fill:#191D22;}
	.st1{fill:#DDC27C;}
	.st2{fill:none;}
	.st3{enable-background:new    ;}
	.st4{fill:#FFFFFF;}
	.st5{fill:#B9A360;stroke:#191D22;stroke-miterlimit:10;}
	.st6{fill:none;stroke:#191D22;stroke-width:0.5;stroke-miterlimit:10;}
</style>
<rect y="0" class="st0" width="181.68" height="162.58"/>
<g>
	<path class="st1" d="M144.47,99.2L124,79.03V58.35l-9.86-9.86v20.83L94.58,50.06l-3.84-3.78l-3.83,3.78L37.02,99.2l53.72-37.23
		L144.47,99.2z M90.84,50.41v8.05L57,83L90.84,50.41z"/>
	<g>
		<rect x="37.79" y="96.13" class="st2" width="105.67" height="11.63"/>
		<g class="st3">
			<path class="st1" d="M55.11,106.24l5.39-13.48h2.7l5.39,13.48h-3.37l-0.94-2.7H60.1l0.94-2.7h2.29l-1.48-4.24l-3.37,9.63H55.11z"
				/>
			<path class="st1" d="M71.25,98.15h8.09v2.7h-8.09V98.15z"/>
			<path class="st1" d="M91.44,92.76c0.56,0,1.04,0.2,1.43,0.59c0.39,0.39,0.59,0.87,0.59,1.43v0.67h-8.09v2.7h6.07
				c0.56,0,1.04,0.2,1.43,0.59c0.39,0.39,0.59,0.87,0.59,1.43v4.05c0,0.56-0.2,1.04-0.59,1.43c-0.39,0.39-0.87,0.59-1.43,0.59H84.7
				c-0.56,0-1.04-0.2-1.43-0.59c-0.39-0.39-0.59-0.87-0.59-1.43v-0.67h8.09v-2.7H84.7c-0.56,0-1.04-0.2-1.43-0.59
				c-0.39-0.39-0.59-0.87-0.59-1.43v-4.04c0-0.56,0.2-1.04,0.59-1.43c0.39-0.39,0.87-0.59,1.43-0.59H91.44z"/>
			<path class="st1" d="M107.59,104.22c0,0.56-0.2,1.04-0.59,1.43c-0.39,0.39-0.87,0.59-1.43,0.59h-6.74c-0.56,0-1.04-0.2-1.43-0.59
				s-0.59-0.87-0.59-1.43V92.76h2.7v10.79h5.39V92.76h2.7V104.22z"/>
			<path class="st1" d="M119.68,92.76c0.56,0,1.04,0.2,1.43,0.59c0.39,0.39,0.59,0.87,0.59,1.43v4.04c0,0.56-0.2,1.04-0.59,1.43
				c-0.39,0.39-0.87,0.59-1.43,0.59h-0.67l4.04,5.39h-3.37l-6.07-8.08v8.08h-2.7V92.76H119.68z M113.62,98.15h5.39v-2.7h-5.39V98.15
				z"/>
		</g>
	</g>
	<g>
		<rect x="35.66" y="110.93" class="st2" width="110.36" height="5.37"/>
		<g class="st3">
			<path class="st4" d="M39.25,112.92h0.49v1.4c-0.18,0.15-0.39,0.26-0.62,0.34s-0.48,0.12-0.74,0.12c-0.36,0-0.69-0.08-0.98-0.24
				c-0.29-0.16-0.52-0.38-0.69-0.66c-0.17-0.28-0.25-0.59-0.25-0.94c0-0.35,0.08-0.66,0.25-0.95c0.17-0.28,0.4-0.5,0.69-0.66
				c0.29-0.16,0.62-0.24,0.99-0.24c0.29,0,0.55,0.05,0.78,0.14c0.23,0.09,0.43,0.23,0.6,0.41l-0.32,0.32
				c-0.29-0.28-0.64-0.42-1.04-0.42c-0.27,0-0.52,0.06-0.74,0.18c-0.22,0.12-0.39,0.28-0.51,0.49c-0.12,0.21-0.18,0.45-0.18,0.71
				c0,0.26,0.06,0.5,0.18,0.71c0.12,0.21,0.29,0.38,0.51,0.5c0.22,0.12,0.46,0.18,0.73,0.18c0.32,0,0.6-0.08,0.84-0.23V112.92z"/>
			<path class="st4" d="M43.01,113.84H41.1l-0.4,0.9h-0.53l1.63-3.6h0.51l1.63,3.6h-0.54L43.01,113.84z M42.83,113.43l-0.78-1.76
				l-0.78,1.76H42.83z"/>
			<path class="st4" d="M45.64,113.5v1.24h-0.51v-1.25l-1.43-2.34h0.55l1.15,1.9l1.16-1.9h0.51L45.64,113.5z"/>
			<path class="st4" d="M49.93,114.74l-0.78-1.1c-0.1,0.01-0.17,0.01-0.23,0.01h-0.89v1.09h-0.51v-3.6h1.4
				c0.47,0,0.83,0.11,1.1,0.33s0.4,0.53,0.4,0.92c0,0.28-0.07,0.51-0.21,0.71s-0.33,0.34-0.59,0.43l0.85,1.21H49.93z M49.66,113
				c0.17-0.14,0.26-0.34,0.26-0.6c0-0.26-0.09-0.46-0.26-0.6c-0.17-0.14-0.42-0.21-0.75-0.21h-0.87v1.62h0.87
				C49.24,113.21,49.49,113.14,49.66,113z"/>
			<path class="st4" d="M51.31,110.67c-0.06-0.06-0.09-0.13-0.09-0.22c0-0.09,0.03-0.16,0.09-0.22c0.06-0.06,0.13-0.09,0.22-0.09
				s0.16,0.03,0.22,0.09c0.06,0.06,0.09,0.13,0.09,0.22c0,0.08-0.03,0.16-0.09,0.22c-0.06,0.06-0.13,0.09-0.22,0.09
				S51.36,110.73,51.31,110.67z M51.27,111.15h0.51v3.6h-0.51V111.15z"/>
			<path class="st4" d="M56.19,114.74l-0.01-2.62l-1.3,2.18h-0.24l-1.3-2.17v2.61h-0.49v-3.6h0.42l1.5,2.53l1.48-2.53h0.42l0,3.6
				H56.19z"/>
			<path class="st4" d="M60.38,114.3v0.45h-2.61v-3.6h2.54v0.45h-2.02v1.11h1.8v0.44h-1.8v1.16H60.38z"/>
			<path class="st4" d="M64.3,111.15v3.6h-0.42l-2.16-2.68v2.68h-0.51v-3.6h0.42l2.16,2.68v-2.68H64.3z"/>
			<path class="st4" d="M66.55,113.15l-0.66,0.67v0.93h-0.51v-3.6h0.51v2.01l1.95-2.01h0.59l-1.54,1.62l1.63,1.98h-0.6L66.55,113.15
				z"/>
			<path class="st4" d="M69.39,114.37c-0.27-0.27-0.4-0.67-0.4-1.18v-2.04h0.51v2.02c0,0.77,0.34,1.16,1.01,1.16
				c0.33,0,0.58-0.1,0.76-0.29c0.17-0.19,0.26-0.48,0.26-0.87v-2.02h0.5v2.04c0,0.52-0.13,0.91-0.4,1.18s-0.64,0.41-1.12,0.41
				S69.66,114.65,69.39,114.37z"/>
			<path class="st4" d="M73.09,111.15h0.51v3.15h1.95v0.45h-2.46V111.15z"/>
			<path class="st4" d="M77.28,113.12h1.38v0.43h-1.38V113.12z"/>
			<path class="st4" d="M82.25,113.5v1.24h-0.51v-1.25l-1.43-2.34h0.55l1.15,1.9l1.16-1.9h0.51L82.25,113.5z"/>
			<path class="st4" d="M86.27,113.84h-1.91l-0.4,0.9h-0.53l1.63-3.6h0.51l1.63,3.6h-0.54L86.27,113.84z M86.09,113.43l-0.78-1.76
				l-0.78,1.76H86.09z"/>
			<path class="st4" d="M88.28,111.59h-1.23v-0.45h2.98v0.45h-1.23v3.15h-0.51V111.59z"/>
			<path class="st4" d="M90.58,111.15h0.51v3.6h-0.51V111.15z"/>
			<path class="st4" d="M94.58,114.74l-0.78-1.1c-0.1,0.01-0.17,0.01-0.23,0.01h-0.89v1.09h-0.51v-3.6h1.4
				c0.47,0,0.83,0.11,1.1,0.33c0.27,0.22,0.4,0.53,0.4,0.92c0,0.28-0.07,0.51-0.21,0.71c-0.14,0.2-0.33,0.34-0.59,0.43l0.85,1.21
				H94.58z M94.31,113c0.17-0.14,0.26-0.34,0.26-0.6c0-0.26-0.09-0.46-0.26-0.6c-0.17-0.14-0.42-0.21-0.75-0.21h-0.87v1.62h0.87
				C93.89,113.21,94.13,113.14,94.31,113z"/>
			<path class="st4" d="M95.91,111.15h0.51v3.6h-0.51V111.15z"/>
			<path class="st4" d="M100.84,114.74l0-2.62l-1.3,2.18H99.3l-1.3-2.17v2.61H97.5v-3.6h0.42l1.5,2.53l1.48-2.53h0.42l0,3.6H100.84z
				"/>
			<path class="st4" d="M103.54,113.12h1.38v0.43h-1.38V113.12z"/>
			<path class="st4" d="M107.14,111.15h1.52c0.38,0,0.72,0.08,1.01,0.23c0.29,0.15,0.52,0.36,0.69,0.63
				c0.16,0.27,0.24,0.58,0.24,0.94c0,0.35-0.08,0.67-0.24,0.94c-0.16,0.27-0.39,0.48-0.69,0.63c-0.29,0.15-0.63,0.23-1.01,0.23
				h-1.52V111.15z M108.63,114.3c0.29,0,0.55-0.06,0.77-0.17c0.22-0.11,0.39-0.27,0.51-0.48s0.18-0.44,0.18-0.71
				c0-0.27-0.06-0.5-0.18-0.71s-0.29-0.36-0.51-0.48c-0.22-0.11-0.48-0.17-0.77-0.17h-0.97v2.7H108.63z"/>
			<path class="st4" d="M113.63,113.84h-1.91l-0.4,0.9h-0.53l1.63-3.6h0.51l1.63,3.6h-0.54L113.63,113.84z M113.45,113.43
				l-0.78-1.76l-0.78,1.76H113.45z"/>
			<path class="st4" d="M118.19,111.15v3.6h-0.42l-2.16-2.68v2.68h-0.51v-3.6h0.42l2.16,2.68v-2.68H118.19z"/>
			<path class="st4" d="M119.27,111.15h0.51v3.6h-0.51V111.15z"/>
			<path class="st4" d="M121.13,114.66c-0.25-0.08-0.45-0.19-0.59-0.33l0.19-0.4c0.14,0.12,0.31,0.22,0.53,0.3
				c0.21,0.08,0.43,0.12,0.66,0.12c0.3,0,0.52-0.05,0.67-0.15c0.15-0.1,0.22-0.24,0.22-0.4c0-0.12-0.04-0.22-0.12-0.3
				c-0.08-0.08-0.18-0.14-0.3-0.18s-0.29-0.09-0.5-0.14c-0.27-0.06-0.49-0.13-0.66-0.2c-0.17-0.06-0.31-0.17-0.43-0.3
				c-0.12-0.13-0.18-0.32-0.18-0.55c0-0.19,0.05-0.37,0.15-0.52c0.1-0.15,0.25-0.28,0.46-0.37c0.21-0.09,0.46-0.14,0.77-0.14
				c0.21,0,0.42,0.03,0.63,0.08c0.21,0.05,0.38,0.13,0.53,0.24l-0.17,0.41c-0.15-0.1-0.31-0.17-0.48-0.22
				c-0.17-0.05-0.34-0.07-0.5-0.07c-0.29,0-0.51,0.05-0.66,0.16s-0.22,0.24-0.22,0.41c0,0.12,0.04,0.22,0.12,0.3
				s0.18,0.14,0.31,0.18c0.12,0.04,0.29,0.09,0.5,0.14c0.27,0.07,0.49,0.13,0.65,0.2c0.16,0.07,0.31,0.17,0.42,0.3
				c0.12,0.13,0.18,0.31,0.18,0.54c0,0.19-0.05,0.36-0.15,0.52c-0.1,0.16-0.26,0.28-0.47,0.37s-0.47,0.14-0.77,0.14
				C121.64,114.78,121.38,114.74,121.13,114.66z M121.39,115.78l0.11-0.25c0.1,0.06,0.22,0.09,0.35,0.09c0.19,0,0.29-0.07,0.29-0.21
				c0-0.06-0.02-0.11-0.07-0.15c-0.05-0.04-0.12-0.05-0.22-0.05h-0.14l0.13-0.5h0.28l-0.08,0.29c0.14,0.01,0.25,0.06,0.33,0.14
				c0.08,0.08,0.12,0.17,0.12,0.29c0,0.14-0.06,0.26-0.17,0.34s-0.27,0.13-0.46,0.13C121.67,115.9,121.52,115.86,121.39,115.78z"/>
			<path class="st4" d="M127.39,114.74l0-2.62l-1.3,2.18h-0.24l-1.3-2.17v2.61h-0.49v-3.6h0.42l1.5,2.53l1.48-2.53h0.42l0,3.6
				H127.39z"/>
			<path class="st4" d="M131.25,113.84h-1.91l-0.4,0.9h-0.53l1.63-3.6h0.51l1.63,3.6h-0.54L131.25,113.84z M131.07,113.43
				l-0.78-1.76l-0.78,1.76H131.07z"/>
			<path class="st4" d="M135.81,111.15v3.6h-0.42l-2.16-2.68v2.68h-0.51v-3.6h0.42l2.16,2.68v-2.68H135.81z"/>
			<path class="st4" d="M136.89,111.15h0.51v3.15h1.95v0.45h-2.46V111.15z"/>
			<path class="st4" d="M139.95,111.15h0.51v3.6h-0.51V111.15z"/>
			<path class="st4" d="M142.71,113.15l-0.66,0.67v0.93h-0.51v-3.6h0.51v2.01l1.95-2.01h0.59l-1.54,1.62l1.63,1.98h-0.6
				L142.71,113.15z"/>
		</g>
	</g>
	<g>
		<path class="st5" d="M96.94,88.56H84.15V76.51c0-3.07,2.49-5.56,5.56-5.56h1.67c3.07,0,5.56,2.49,5.56,5.56
			C96.94,76.51,96.94,88.56,96.94,88.56z"/>
		<line class="st6" x1="90.54" y1="70.95" x2="90.54" y2="88.56"/>
		<line class="st6" x1="84.15" y1="80.06" x2="96.94" y2="80.06"/>
	</g>
</g>
</svg>
